%YAML 1.1
%TAG !u! tag:unity3d.com,2011:
--- !u!1045 &1
EditorBuildSettings:
  m_ObjectHideFlags: 0
  serializedVersion: 2
  m_Scenes:
  - enabled: 1
    path: Assets/Scenes/1-Terrain.unity
    guid: 4083e535236c306489aa75ae5f59925c
  - enabled: 1
    path: Assets/Scenes/2-Texturizado.unity
    guid: d44b06527dec9b84282178909aeba99f
  - enabled: 1
    path: "Assets/Scenes/3-Vegetaci\xF3n.unity"
    guid: d79c33e1e946cd346872cdfc1ef52dc6
  - enabled: 1
    path: Assets/Scenes/4-Layout.unity
    guid: 401fbc1a31dbc16479a630c9d7e1d7b4
  - enabled: 1
    path: Assets/Scenes/5-FX.unity
    guid: 1c842786bde4ba247bd53b6aefaa2cd9
  - enabled: 1
    path: "Assets/Scenes/6-Iluminaci\xF3n.unity"
    guid: f04d83c41daa31e4ab417bc6486d1dfa
  - enabled: 1
    path: Assets/Scenes/7-Final.unity
    guid: 6220dec9cbe6bab409b570409d5cbe72
  m_configObjects: {}
